id;Tbl_name;column_name;source_code;source_value*;concept_id*;concept_value;domain;Comments*;;;;;;;;;;;;;;;;;;;
;visit_occurrence;visit_concept_id;EMERGENCY;null;9203;Emergency Room Visit;visit;;;;;;;;;;;;;;;;;;;;
;visit_occurrence;visit_concept_id;INPATIENT;null;9201;Inpatient Visit;visit;;;;;;;;;;;;;;;;;;;;
;visit_occurrence;visit_concept_id;OUTPATIENT;null;9202;Outpatient Visit;visit;;;;;;;;;;;;;;;;;;;;
;visit_occurrence;admitting_source_concept_id;;null;0;null;null;;;;;;;;;;;;;;;;;;;;
;visit_occurrence;admitting_source_concept_id;1;1;0;null;null;;;;;;;;;;;;;;;;;;;;
;visit_occurrence;admitting_source_concept_id;4;4;0;null;null;;;;;;;;;;;;;;;;;;;;
;visit_occurrence;admitting_source_concept_id;5;5;0;null;null;;;;;;;;;;;;;;;;;;;;
;visit_occurrence;admitting_source_concept_id;AMBSURG;AMBSURG;0;null;null;;;;;;;;;;;;;;;;;;;;
;visit_occurrence;admitting_source_concept_id;AMSURG;AMSURG;0;null;null;;;;;;;;;;;;;;;;;;;;
;visit_occurrence;admitting_source_concept_id;CD:356575742;CD:356575742;0;null;null;;;;;;;;;;;;;;;;;;;;
;visit_occurrence;admitting_source_concept_id;CLEN;CLEN;0;null;null;;;;;;;;;;;;;;;;;;;;
;visit_occurrence;admitting_source_concept_id;CLI;CLI;0;null;null;;;;;;;;;;;;;;;;;;;;
;visit_occurrence;admitting_source_concept_id;CR;CR;0;null;null;;;;;;;;;;;;;;;;;;;;
;visit_occurrence;admitting_source_concept_id;EMR;EMR;0;null;null;;;;;;;;;;;;;;;;;;;;
;visit_occurrence;admitting_source_concept_id;EO;EO;0;null;null;;;;;;;;;;;;;;;;;;;;
;visit_occurrence;admitting_source_concept_id;ER;ER;0;null;null;;;;;;;;;;;;;;;;;;;;
;visit_occurrence;admitting_source_concept_id;ERBMC;ERBMC;0;null;null;;;;;;;;;;;;;;;;;;;;
;visit_occurrence;admitting_source_concept_id;HB;HB;0;null;null;;;;;;;;;;;;;;;;;;;;
;visit_occurrence;admitting_source_concept_id;HF;HF;0;null;null;;;;;;;;;;;;;;;;;;;;
;visit_occurrence;admitting_source_concept_id;I1;I1;0;null;null;;;;;;;;;;;;;;;;;;;;
;visit_occurrence;admitting_source_concept_id;I2;I2;0;null;null;;;;;;;;;;;;;;;;;;;;
;visit_occurrence;admitting_source_concept_id;I4;I4;0;null;null;;;;;;;;;;;;;;;;;;;;
;visit_occurrence;admitting_source_concept_id;I5;I5;0;null;null;;;;;;;;;;;;;;;;;;;;
;visit_occurrence;admitting_source_concept_id;I6;I6;0;null;null;;;;;;;;;;;;;;;;;;;;
;visit_occurrence;admitting_source_concept_id;I7;I7;0;null;null;;;;;;;;;;;;;;;;;;;;
;visit_occurrence;admitting_source_concept_id;I8;I8;0;null;null;;;;;;;;;;;;;;;;;;;;
;visit_occurrence;admitting_source_concept_id;ID;ID;0;null;null;;;;;;;;;;;;;;;;;;;;
;visit_occurrence;admitting_source_concept_id;IF;IF;0;null;null;;;;;;;;;;;;;;;;;;;;
;visit_occurrence;admitting_source_concept_id;NB;NB;0;null;null;;;;;;;;;;;;;;;;;;;;
;visit_occurrence;admitting_source_concept_id;O1;O1;0;null;null;;;;;;;;;;;;;;;;;;;;
;visit_occurrence;admitting_source_concept_id;O2;O2;0;null;null;;;;;;;;;;;;;;;;;;;;
;visit_occurrence;admitting_source_concept_id;O4;O4;0;null;null;;;;;;;;;;;;;;;;;;;;
;visit_occurrence;admitting_source_concept_id;O5;O5;0;null;null;;;;;;;;;;;;;;;;;;;;
;visit_occurrence;admitting_source_concept_id;O6;O6;0;null;null;;;;;;;;;;;;;;;;;;;;
;visit_occurrence;admitting_source_concept_id;O7;O7;0;null;null;;;;;;;;;;;;;;;;;;;;
;visit_occurrence;admitting_source_concept_id;O8;O8;0;null;null;;;;;;;;;;;;;;;;;;;;
;visit_occurrence;admitting_source_concept_id;OD;OD;0;null;null;;;;;;;;;;;;;;;;;;;;
;visit_occurrence;admitting_source_concept_id;OF;OF;0;null;null;;;;;;;;;;;;;;;;;;;;
;visit_occurrence;admitting_source_concept_id;OP;OP;0;null;null;;;;;;;;;;;;;;;;;;;;
;visit_occurrence;admitting_source_concept_id;OS;OS;0;null;null;;;;;;;;;;;;;;;;;;;;
;visit_occurrence;admitting_source_concept_id;OTHER;OTHER;0;null;null;;;;;;;;;;;;;;;;;;;;
;visit_occurrence;admitting_source_concept_id;PHY;PHY;0;null;null;;;;;;;;;;;;;;;;;;;;
;visit_occurrence;admitting_source_concept_id;PR;PR;0;null;null;;;;;;;;;;;;;;;;;;;;
;visit_occurrence;admitting_source_concept_id;RM;RM;0;null;null;;;;;;;;;;;;;;;;;;;;
;visit_occurrence;admitting_source_concept_id;RP;RP;0;null;null;;;;;;;;;;;;;;;;;;;;
;visit_occurrence;admitting_source_concept_id;TAC;TAC;0;null;null;;;;;;;;;;;;;;;;;;;;
;visit_occurrence;admitting_source_concept_id;TB;TB;0;null;null;;;;;;;;;;;;;;;;;;;;
;visit_occurrence;admitting_source_concept_id;TE;TE;0;null;null;;;;;;;;;;;;;;;;;;;;
;visit_occurrence;admitting_source_concept_id;TH;TH;0;null;null;;;;;;;;;;;;;;;;;;;;
;visit_occurrence;admitting_source_concept_id;THCF;THCF;0;null;null;;;;;;;;;;;;;;;;;;;;
;visit_occurrence;admitting_source_concept_id;THOS;THOS;0;null;null;;;;;;;;;;;;;;;;;;;;
;visit_occurrence;admitting_source_concept_id;TICF;TICF;0;null;null;;;;;;;;;;;;;;;;;;;;
;visit_occurrence;admitting_source_concept_id;TNOB;TNOB;0;null;null;;;;;;;;;;;;;;;;;;;;
;visit_occurrence;admitting_source_concept_id;TO;TO;0;null;null;;;;;;;;;;;;;;;;;;;;
;visit_occurrence;admitting_source_concept_id;TP;TP;0;null;null;;;;;;;;;;;;;;;;;;;;
;visit_occurrence;admitting_source_concept_id;TSNF-L1;TSNF-L1;0;null;null;;;;;;;;;;;;;;;;;;;;
;visit_occurrence;admitting_source_concept_id;TW;TW;0;null;null;;;;;;;;;;;;;;;;;;;;
;visit_occurrence;admitting_source_concept_id;WALK;WALK;0;null;null;;;;;;;;;;;;;;;;;;;;
;visit_occurrence;discharge_to_concept_id;;null;0;null;null;;;;;;;;;;;;;;;;;;;;
;visit_occurrence;discharge_to_concept_id;A;A;0;null;null;;;;;;;;;;;;;;;;;;;;
;visit_occurrence;discharge_to_concept_id;ADC;ADC;0;null;null;;;;;;;;;;;;;;;;;;;;
;visit_occurrence;discharge_to_concept_id;ADS;ADS;0;null;null;;;;;;;;;;;;;;;;;;;;
;visit_occurrence;discharge_to_concept_id;AHH;AHH;0;null;null;;;;;;;;;;;;;;;;;;;;
;visit_occurrence;discharge_to_concept_id;AHM;AHM;0;null;null;;;;;;;;;;;;;;;;;;;;
;visit_occurrence;discharge_to_concept_id;AHR;AHR;0;null;null;;;;;;;;;;;;;;;;;;;;
;visit_occurrence;discharge_to_concept_id;AMA;AMA;0;null;null;;;;;;;;;;;;;;;;;;;;
;visit_occurrence;discharge_to_concept_id;AOBS;AOBS;0;null;null;;;;;;;;;;;;;;;;;;;;
;visit_occurrence;discharge_to_concept_id;AQQ;AQQ;0;null;null;;;;;;;;;;;;;;;;;;;;
;visit_occurrence;discharge_to_concept_id;ASS;ASS;0;null;null;;;;;;;;;;;;;;;;;;;;
;visit_occurrence;discharge_to_concept_id;ATE;ATE;0;null;null;;;;;;;;;;;;;;;;;;;;
;visit_occurrence;discharge_to_concept_id;ATF;ATF;0;null;null;;;;;;;;;;;;;;;;;;;;
;visit_occurrence;discharge_to_concept_id;ATH;ATH;0;null;null;;;;;;;;;;;;;;;;;;;;
;visit_occurrence;discharge_to_concept_id;ATI;ATI;0;null;null;;;;;;;;;;;;;;;;;;;;
;visit_occurrence;discharge_to_concept_id;ATN;ATN;0;null;null;;;;;;;;;;;;;;;;;;;;
;visit_occurrence;discharge_to_concept_id;ATW;ATW;0;null;null;;;;;;;;;;;;;;;;;;;;
;visit_occurrence;discharge_to_concept_id;ATX;ATX;0;null;null;;;;;;;;;;;;;;;;;;;;
;visit_occurrence;discharge_to_concept_id;ATY;ATY;0;null;null;;;;;;;;;;;;;;;;;;;;
;visit_occurrence;discharge_to_concept_id;ATZ;ATZ;0;null;null;;;;;;;;;;;;;;;;;;;;
;visit_occurrence;discharge_to_concept_id;BKMC;BKMC;0;null;null;;;;;;;;;;;;;;;;;;;;
;visit_occurrence;discharge_to_concept_id;BRONSON;BRONSON;0;null;null;;;;;;;;;;;;;;;;;;;;
;visit_occurrence;discharge_to_concept_id;BSMC;BSMC;0;null;null;;;;;;;;;;;;;;;;;;;;
;visit_occurrence;discharge_to_concept_id;CAH;CAH;0;null;null;;;;;;;;;;;;;;;;;;;;
;visit_occurrence;discharge_to_concept_id;CD:2087055;CD:2087055;0;null;null;;;;;;;;;;;;;;;;;;;;
;visit_occurrence;discharge_to_concept_id;CLR;CLR;0;null;null;;;;;;;;;;;;;;;;;;;;
;visit_occurrence;discharge_to_concept_id;CUTOVER;CUTOVER;0;null;null;;;;;;;;;;;;;;;;;;;;
;visit_occurrence;discharge_to_concept_id;DCCIS;DCCIS;0;null;null;;;;;;;;;;;;;;;;;;;;
;visit_occurrence;discharge_to_concept_id;DCHOM;DCHOM;0;null;null;;;;;;;;;;;;;;;;;;;;
;visit_occurrence;discharge_to_concept_id;DCNF;DCNF;0;null;null;;;;;;;;;;;;;;;;;;;;
;visit_occurrence;discharge_to_concept_id;DFH;DFH;0;null;null;;;;;;;;;;;;;;;;;;;;
;visit_occurrence;discharge_to_concept_id;DHH;DHH;0;null;null;;;;;;;;;;;;;;;;;;;;
;visit_occurrence;discharge_to_concept_id;DINSTA;DINSTA;0;null;null;;;;;;;;;;;;;;;;;;;;
;visit_occurrence;discharge_to_concept_id;DLTAC;DLTAC;0;null;null;;;;;;;;;;;;;;;;;;;;
;visit_occurrence;discharge_to_concept_id;DOTHER;DOTHER;0;null;null;;;;;;;;;;;;;;;;;;;;
;visit_occurrence;discharge_to_concept_id;DRM;DRM;0;null;null;;;;;;;;;;;;;;;;;;;;
;visit_occurrence;discharge_to_concept_id;DRP;DRP;0;null;null;;;;;;;;;;;;;;;;;;;;
;visit_occurrence;discharge_to_concept_id;DTAH;DTAH;0;null;null;;;;;;;;;;;;;;;;;;;;
;visit_occurrence;discharge_to_concept_id;DTPSY;DTPSY;0;null;null;;;;;;;;;;;;;;;;;;;;
;visit_occurrence;discharge_to_concept_id;DTREHAB;DTREHAB;0;null;null;;;;;;;;;;;;;;;;;;;;
;visit_occurrence;discharge_to_concept_id;E;E;0;null;null;;;;;;;;;;;;;;;;;;;;
;visit_occurrence;discharge_to_concept_id;EL;EL;0;null;null;;;;;;;;;;;;;;;;;;;;
;visit_occurrence;discharge_to_concept_id;ELOPED;ELOPED;0;null;null;;;;;;;;;;;;;;;;;;;;
;visit_occurrence;discharge_to_concept_id;EX;EX;0;null;null;;;;;;;;;;;;;;;;;;;;
;visit_occurrence;discharge_to_concept_id;EX ED;EX ED;0;null;null;;;;;;;;;;;;;;;;;;;;
;visit_occurrence;discharge_to_concept_id;FOWLER;FOWLER;0;null;null;;;;;;;;;;;;;;;;;;;;
;visit_occurrence;discharge_to_concept_id;H'OKE HOSP;H'OKE HOSP;0;null;null;;;;;;;;;;;;;;;;;;;;
;visit_occurrence;discharge_to_concept_id;HHS;HHS;0;null;null;;;;;;;;;;;;;;;;;;;;
;visit_occurrence;discharge_to_concept_id;HOM;HOM;0;null;null;;;;;;;;;;;;;;;;;;;;
;visit_occurrence;discharge_to_concept_id;HOME;HOME;0;null;null;;;;;;;;;;;;;;;;;;;;
;visit_occurrence;discharge_to_concept_id;HOMLES/SHL;HOMLES/SHL;0;null;null;;;;;;;;;;;;;;;;;;;;
;visit_occurrence;discharge_to_concept_id;HOS;HOS;0;null;null;;;;;;;;;;;;;;;;;;;;
;visit_occurrence;discharge_to_concept_id;HOSP;HOSP;0;null;null;;;;;;;;;;;;;;;;;;;;
;visit_occurrence;discharge_to_concept_id;HSMF;HSMF;0;null;null;;;;;;;;;;;;;;;;;;;;
;visit_occurrence;discharge_to_concept_id;ICF;ICF;0;null;null;;;;;;;;;;;;;;;;;;;;
;visit_occurrence;discharge_to_concept_id;INH;INH;0;null;null;;;;;;;;;;;;;;;;;;;;
;visit_occurrence;discharge_to_concept_id;INPT;INPT;0;null;null;;;;;;;;;;;;;;;;;;;;
;visit_occurrence;discharge_to_concept_id;LAW;LAW;0;null;null;;;;;;;;;;;;;;;;;;;;
;visit_occurrence;discharge_to_concept_id;LONGTERM;LONGTERM;0;null;null;;;;;;;;;;;;;;;;;;;;
;visit_occurrence;discharge_to_concept_id;LWBS;LWBS;0;null;null;;;;;;;;;;;;;;;;;;;;
;visit_occurrence;discharge_to_concept_id;MCFOWLER;MCFOWLER;0;null;null;;;;;;;;;;;;;;;;;;;;
;visit_occurrence;discharge_to_concept_id;MERCY HOSP;MERCY HOSP;0;null;null;;;;;;;;;;;;;;;;;;;;
;visit_occurrence;discharge_to_concept_id;POL;POL;0;null;null;;;;;;;;;;;;;;;;;;;;
;visit_occurrence;discharge_to_concept_id;REHAB;REHAB;0;null;null;;;;;;;;;;;;;;;;;;;;
;visit_occurrence;discharge_to_concept_id;RES;RES;0;null;null;;;;;;;;;;;;;;;;;;;;
;visit_occurrence;discharge_to_concept_id;SNF;SNF;0;null;null;;;;;;;;;;;;;;;;;;;;
;visit_occurrence;discharge_to_concept_id;UMASS;UMASS;0;null;null;;;;;;;;;;;;;;;;;;;;
;visit_occurrence;discharge_to_concept_id;VA;VA;0;null;null;;;;;;;;;;;;;;;;;;;;
;visit_occurrence;discharge_to_concept_id;WMH;WMH;0;null;null;;;;;;;;;;;;;;;;;;;;
;visit_occurrence;discharge_to_concept_id;X7Z;X7Z;0;null;null;;;;;;;;;;;;;;;;;;;;
;visit_occurrence;discharge_to_concept_id;XAZ;XAZ;0;null;null;;;;;;;;;;;;;;;;;;;;
;visit_occurrence;discharge_to_concept_id;XBZ;XBZ;0;null;null;;;;;;;;;;;;;;;;;;;;
;visit_occurrence;discharge_to_concept_id;XCZ;XCZ;0;null;null;;;;;;;;;;;;;;;;;;;;
;note;note_class_concept_id;AMBULATORY;AMBULATORY;0;null;null;;;;;;;;;;;;;;;;;;;;
;note;note_class_concept_id;INPATIENT;INPATIENT;0;null;null;;;;;;;;;;;;;;;;;;;;
;note;note_class_concept_id;DISCHARGE SUMMARIES;DISCHARGE SUMMARIES;706531;Discharge summary;Meas Value;;;;;;;;;;;;;;;;;;;;
;note;note_class_concept_id;EMERGENCY NOTES;EMERGENCY NOTES;1002465;Emergency procedure;Meas Value;;;;;;;;;;;;;;;;;;;;
;note;note_class_concept_id;OPERATIVE/PROCEDURE;OPERATIVE/PROCEDURE;706352;Procedure;Meas Value;;;;;;;;;;;;;;;;;;;;
;note;note_class_concept_id;HIM ROI;HIM ROI;0;null;null;;;;;;;;;;;;;;;;;;;;
;;;;;;;;;;;;;;;;;;;;;;;;;;;
;;;;;;;;;;;;;;;;;;;;;;;;;;;
;;;;;;;;;;;;;;;;;;;;;;;;;;;
;;;;;;;;;;;;;;;;;;;;;;;;;;;
;;;;;;;;;;;;;;;;;;;;;;;;;;;
;;;;;;;;;;;;;;;;;;;;;;;;;;;
;;;;;;;;;;;;;;;;;;;;;;;;;;;
;;;;;;;;;;;;;;;;;;;;;;;;;;;
;;;;;;;;;;;;;;;;;;;;;;;;;;;
;;;;;;;;;;;;;;;;;;;;;;;;;;;
;;;;;;;;;;;;;;;;;;;;;;;;;;;
;;;;;;;;;;;;;;;;;;;;;;;;;;;
;;;;;;;;;;;;;;;;;;;;;;;;;;;
;;;;;;;;;;;;;;;;;;;;;;;;;;;
;;;;;;;;;;;;;;;;;;;;;;;;;;;
;;;;;;;;;;;;;;;;;;;;;;;;;;;
;;;;;;;;;;;;;;;;;;;;;;;;;;;
;;;;;;;;;;;;;;;;;;;;;;;;;;;
;;;;;;;;;;;;;;;;;;;;;;;;;;;
;;;;;;;;;;;;;;;;;;;;;;;;;;;
;;;;;;;;;;;;;;;;;;;;;;;;;;;
;;;;;;;;;;;;;;;;;;;;;;;;;;;
;;;;;;;;;;;;;;;;;;;;;;;;;;;
;;;;;;;;;;;;;;;;;;;;;;;;;;;
;;;;;;;;;;;;;;;;;;;;;;;;;;;
;;;;;;;;;;;;;;;;;;;;;;;;;;;
;;;;;;;;;;;;;;;;;;;;;;;;;;;
;;;;;;;;;;;;;;;;;;;;;;;;;;;
;;;;;;;;;;;;;;;;;;;;;;;;;;;
;;;;;;;;;;;;;;;;;;;;;;;;;;;
;;;;;;;;;;;;;;;;;;;;;;;;;;;
;;;;;;;;;;;;;;;;;;;;;;;;;;;
;;;;;;;;;;;;;;;;;;;;;;;;;;;
;;;;;;;;;;;;;;;;;;;;;;;;;;;
;;;;;;;;;;;;;;;;;;;;;;;;;;;
;;;;;;;;;;;;;;;;;;;;;;;;;;;
;;;;;;;;;;;;;;;;;;;;;;;;;;;
;;;;;;;;;;;;;;;;;;;;;;;;;;;
;;;;;;;;;;;;;;;;;;;;;;;;;;;
;;;;;;;;;;;;;;;;;;;;;;;;;;;
;;;;;;;;;;;;;;;;;;;;;;;;;;;
;;;;;;;;;;;;;;;;;;;;;;;;;;;
;;;;;;;;;;;;;;;;;;;;;;;;;;;
;;;;;;;;;;;;;;;;;;;;;;;;;;;
;;;;;;;;;;;;;;;;;;;;;;;;;;;
;;;;;;;;;;;;;;;;;;;;;;;;;;;
;;;;;;;;;;;;;;;;;;;;;;;;;;;
;;;;;;;;;;;;;;;;;;;;;;;;;;;
;;;;;;;;;;;;;;;;;;;;;;;;;;;
;;;;;;;;;;;;;;;;;;;;;;;;;;;
;;;;;;;;;;;;;;;;;;;;;;;;;;;
;;;;;;;;;;;;;;;;;;;;;;;;;;;
;;;;;;;;;;;;;;;;;;;;;;;;;;;
;;;;;;;;;;;;;;;;;;;;;;;;;;;
;;;;;;;;;;;;;;;;;;;;;;;;;;;
;;;;;;;;;;;;;;;;;;;;;;;;;;;
;;;;;;;;;;;;;;;;;;;;;;;;;;;
;;;;;;;;;;;;;;;;;;;;;;;;;;;
;;;;;;;;;;;;;;;;;;;;;;;;;;;
;;;;;;;;;;;;;;;;;;;;;;;;;;;
;;;;;;;;;;;;;;;;;;;;;;;;;;;
;;;;;;;;;;;;;;;;;;;;;;;;;;;
;;;;;;;;;;;;;;;;;;;;;;;;;;;
;;;;;;;;;;;;;;;;;;;;;;;;;;;
;;;;;;;;;;;;;;;;;;;;;;;;;;;
;;;;;;;;;;;;;;;;;;;;;;;;;;;
;;;;;;;;;;;;;;;;;;;;;;;;;;;
;;;;;;;;;;;;;;;;;;;;;;;;;;;
;;;;;;;;;;;;;;;;;;;;;;;;;;;
;;;;;;;;;;;;;;;;;;;;;;;;;;;
;;;;;;;;;;;;;;;;;;;;;;;;;;;
;;;;;;;;;;;;;;;;;;;;;;;;;;;
;;;;;;;;;;;;;;;;;;;;;;;;;;;
;;;;;;;;;;;;;;;;;;;;;;;;;;;
;;;;;;;;;;;;;;;;;;;;;;;;;;;
;;;;;;;;;;;;;;;;;;;;;;;;;;;
;;;;;;;;;;;;;;;;;;;;;;;;;;;
;;;;;;;;;;;;;;;;;;;;;;;;;;;
;;;;;;;;;;;;;;;;;;;;;;;;;;;
;;;;;;;;;;;;;;;;;;;;;;;;;;;
;;;;;;;;;;;;;;;;;;;;;;;;;;;
;;;;;;;;;;;;;;;;;;;;;;;;;;;
;;;;;;;;;;;;;;;;;;;;;;;;;;;
;;;;;;;;;;;;;;;;;;;;;;;;;;;
;;;;;;;;;;;;;;;;;;;;;;;;;;;
;;;;;;;;;;;;;;;;;;;;;;;;;;;
;;;;;;;;;;;;;;;;;;;;;;;;;;;
;;;;;;;;;;;;;;;;;;;;;;;;;;;
;;;;;;;;;;;;;;;;;;;;;;;;;;;
;;;;;;;;;;;;;;;;;;;;;;;;;;;
;;;;;;;;;;;;;;;;;;;;;;;;;;;
;;;;;;;;;;;;;;;;;;;;;;;;;;;
;;;;;;;;;;;;;;;;;;;;;;;;;;;
;;;;;;;;;;;;;;;;;;;;;;;;;;;
;;;;;;;;;;;;;;;;;;;;;;;;;;;
;;;;;;;;;;;;;;;;;;;;;;;;;;;
;;;;;;;;;;;;;;;;;;;;;;;;;;;
;;;;;;;;;;;;;;;;;;;;;;;;;;;
;;;;;;;;;;;;;;;;;;;;;;;;;;;
;;;;;;;;;;;;;;;;;;;;;;;;;;;
;;;;;;;;;;;;;;;;;;;;;;;;;;;
;;;;;;;;;;;;;;;;;;;;;;;;;;;
;;;;;;;;;;;;;;;;;;;;;;;;;;;
;;;;;;;;;;;;;;;;;;;;;;;;;;;
;;;;;;;;;;;;;;;;;;;;;;;;;;;
;;;;;;;;;;;;;;;;;;;;;;;;;;;
;;;;;;;;;;;;;;;;;;;;;;;;;;;
;;;;;;;;;;;;;;;;;;;;;;;;;;;
;;;;;;;;;;;;;;;;;;;;;;;;;;;
;;;;;;;;;;;;;;;;;;;;;;;;;;;
;;;;;;;;;;;;;;;;;;;;;;;;;;;
;;;;;;;;;;;;;;;;;;;;;;;;;;;
;;;;;;;;;;;;;;;;;;;;;;;;;;;
;;;;;;;;;;;;;;;;;;;;;;;;;;;
;;;;;;;;;;;;;;;;;;;;;;;;;;;
;;;;;;;;;;;;;;;;;;;;;;;;;;;
;;;;;;;;;;;;;;;;;;;;;;;;;;;
;;;;;;;;;;;;;;;;;;;;;;;;;;;
;;;;;;;;;;;;;;;;;;;;;;;;;;;
;;;;;;;;;;;;;;;;;;;;;;;;;;;
;;;;;;;;;;;;;;;;;;;;;;;;;;;
;;;;;;;;;;;;;;;;;;;;;;;;;;;
;;;;;;;;;;;;;;;;;;;;;;;;;;;
;;;;;;;;;;;;;;;;;;;;;;;;;;;
;;;;;;;;;;;;;;;;;;;;;;;;;;;
;;;;;;;;;;;;;;;;;;;;;;;;;;;
;;;;;;;;;;;;;;;;;;;;;;;;;;;
;;;;;;;;;;;;;;;;;;;;;;;;;;;
;;;;;;;;;;;;;;;;;;;;;;;;;;;
;;;;;;;;;;;;;;;;;;;;;;;;;;;
;;;;;;;;;;;;;;;;;;;;;;;;;;;
;;;;;;;;;;;;;;;;;;;;;;;;;;;
;;;;;;;;;;;;;;;;;;;;;;;;;;;
;;;;;;;;;;;;;;;;;;;;;;;;;;;
;;;;;;;;;;;;;;;;;;;;;;;;;;;
;;;;;;;;;;;;;;;;;;;;;;;;;;;
;;;;;;;;;;;;;;;;;;;;;;;;;;;
;;;;;;;;;;;;;;;;;;;;;;;;;;;
;;;;;;;;;;;;;;;;;;;;;;;;;;;
;;;;;;;;;;;;;;;;;;;;;;;;;;;
;;;;;;;;;;;;;;;;;;;;;;;;;;;
;;;;;;;;;;;;;;;;;;;;;;;;;;;
;;;;;;;;;;;;;;;;;;;;;;;;;;;
;;;;;;;;;;;;;;;;;;;;;;;;;;;
;;;;;;;;;;;;;;;;;;;;;;;;;;;
;;;;;;;;;;;;;;;;;;;;;;;;;;;
;;;;;;;;;;;;;;;;;;;;;;;;;;;
;;;;;;;;;;;;;;;;;;;;;;;;;;;
;;;;;;;;;;;;;;;;;;;;;;;;;;;
;;;;;;;;;;;;;;;;;;;;;;;;;;;
;;;;;;;;;;;;;;;;;;;;;;;;;;;
;;;;;;;;;;;;;;;;;;;;;;;;;;;
;;;;;;;;;;;;;;;;;;;;;;;;;;;
;;;;;;;;;;;;;;;;;;;;;;;;;;;
;;;;;;;;;;;;;;;;;;;;;;;;;;;
;;;;;;;;;;;;;;;;;;;;;;;;;;;
;;;;;;;;;;;;;;;;;;;;;;;;;;;
;;;;;;;;;;;;;;;;;;;;;;;;;;;
;;;;;;;;;;;;;;;;;;;;;;;;;;;
;;;;;;;;;;;;;;;;;;;;;;;;;;;
;;;;;;;;;;;;;;;;;;;;;;;;;;;
;;;;;;;;;;;;;;;;;;;;;;;;;;;
;;;;;;;;;;;;;;;;;;;;;;;;;;;
;;;;;;;;;;;;;;;;;;;;;;;;;;;
;;;;;;;;;;;;;;;;;;;;;;;;;;;
;;;;;;;;;;;;;;;;;;;;;;;;;;;
;;;;;;;;;;;;;;;;;;;;;;;;;;;
;;;;;;;;;;;;;;;;;;;;;;;;;;;
;;;;;;;;;;;;;;;;;;;;;;;;;;;
;;;;;;;;;;;;;;;;;;;;;;;;;;;
;;;;;;;;;;;;;;;;;;;;;;;;;;;
;;;;;;;;;;;;;;;;;;;;;;;;;;;
;;;;;;;;;;;;;;;;;;;;;;;;;;;
;;;;;;;;;;;;;;;;;;;;;;;;;;;
;;;;;;;;;;;;;;;;;;;;;;;;;;;
;;;;;;;;;;;;;;;;;;;;;;;;;;;
;;;;;;;;;;;;;;;;;;;;;;;;;;;
;;;;;;;;;;;;;;;;;;;;;;;;;;;
;;;;;;;;;;;;;;;;;;;;;;;;;;;
;;;;;;;;;;;;;;;;;;;;;;;;;;;
;;;;;;;;;;;;;;;;;;;;;;;;;;;
;;;;;;;;;;;;;;;;;;;;;;;;;;;
;;;;;;;;;;;;;;;;;;;;;;;;;;;
;;;;;;;;;;;;;;;;;;;;;;;;;;;
;;;;;;;;;;;;;;;;;;;;;;;;;;;
;;;;;;;;;;;;;;;;;;;;;;;;;;;
;;;;;;;;;;;;;;;;;;;;;;;;;;;
;;;;;;;;;;;;;;;;;;;;;;;;;;;
;;;;;;;;;;;;;;;;;;;;;;;;;;;
;;;;;;;;;;;;;;;;;;;;;;;;;;;
;;;;;;;;;;;;;;;;;;;;;;;;;;;
;;;;;;;;;;;;;;;;;;;;;;;;;;;
;;;;;;;;;;;;;;;;;;;;;;;;;;;
;;;;;;;;;;;;;;;;;;;;;;;;;;;
;;;;;;;;;;;;;;;;;;;;;;;;;;;
;;;;;;;;;;;;;;;;;;;;;;;;;;;
;;;;;;;;;;;;;;;;;;;;;;;;;;;
;;;;;;;;;;;;;;;;;;;;;;;;;;;
;;;;;;;;;;;;;;;;;;;;;;;;;;;
;;;;;;;;;;;;;;;;;;;;;;;;;;;
;;;;;;;;;;;;;;;;;;;;;;;;;;;
;;;;;;;;;;;;;;;;;;;;;;;;;;;
;;;;;;;;;;;;;;;;;;;;;;;;;;;
;;;;;;;;;;;;;;;;;;;;;;;;;;;
;;;;;;;;;;;;;;;;;;;;;;;;;;;
;;;;;;;;;;;;;;;;;;;;;;;;;;;
;;;;;;;;;;;;;;;;;;;;;;;;;;;
;;;;;;;;;;;;;;;;;;;;;;;;;;;
;;;;;;;;;;;;;;;;;;;;;;;;;;;
;;;;;;;;;;;;;;;;;;;;;;;;;;;
;;;;;;;;;;;;;;;;;;;;;;;;;;;
;;;;;;;;;;;;;;;;;;;;;;;;;;;
;;;;;;;;;;;;;;;;;;;;;;;;;;;
;;;;;;;;;;;;;;;;;;;;;;;;;;;
;;;;;;;;;;;;;;;;;;;;;;;;;;;
;;;;;;;;;;;;;;;;;;;;;;;;;;;
;;;;;;;;;;;;;;;;;;;;;;;;;;;
;;;;;;;;;;;;;;;;;;;;;;;;;;;
;;;;;;;;;;;;;;;;;;;;;;;;;;;
;;;;;;;;;;;;;;;;;;;;;;;;;;;
;;;;;;;;;;;;;;;;;;;;;;;;;;;
;;;;;;;;;;;;;;;;;;;;;;;;;;;
;;;;;;;;;;;;;;;;;;;;;;;;;;;
;;;;;;;;;;;;;;;;;;;;;;;;;;;
;;;;;;;;;;;;;;;;;;;;;;;;;;;
;;;;;;;;;;;;;;;;;;;;;;;;;;;
;;;;;;;;;;;;;;;;;;;;;;;;;;;
;;;;;;;;;;;;;;;;;;;;;;;;;;;
;;;;;;;;;;;;;;;;;;;;;;;;;;;
;;;;;;;;;;;;;;;;;;;;;;;;;;;
;;;;;;;;;;;;;;;;;;;;;;;;;;;
;;;;;;;;;;;;;;;;;;;;;;;;;;;
;;;;;;;;;;;;;;;;;;;;;;;;;;;
;;;;;;;;;;;;;;;;;;;;;;;;;;;
;;;;;;;;;;;;;;;;;;;;;;;;;;;
;;;;;;;;;;;;;;;;;;;;;;;;;;;
;;;;;;;;;;;;;;;;;;;;;;;;;;;
;;;;;;;;;;;;;;;;;;;;;;;;;;;
;;;;;;;;;;;;;;;;;;;;;;;;;;;
;;;;;;;;;;;;;;;;;;;;;;;;;;;
;;;;;;;;;;;;;;;;;;;;;;;;;;;
;;;;;;;;;;;;;;;;;;;;;;;;;;;
;;;;;;;;;;;;;;;;;;;;;;;;;;;
;;;;;;;;;;;;;;;;;;;;;;;;;;;
;;;;;;;;;;;;;;;;;;;;;;;;;;;
;;;;;;;;;;;;;;;;;;;;;;;;;;;
;;;;;;;;;;;;;;;;;;;;;;;;;;;
;;;;;;;;;;;;;;;;;;;;;;;;;;;
;;;;;;;;;;;;;;;;;;;;;;;;;;;
;;;;;;;;;;;;;;;;;;;;;;;;;;;
;;;;;;;;;;;;;;;;;;;;;;;;;;;
;;;;;;;;;;;;;;;;;;;;;;;;;;;
;;;;;;;;;;;;;;;;;;;;;;;;;;;
;;;;;;;;;;;;;;;;;;;;;;;;;;;
;;;;;;;;;;;;;;;;;;;;;;;;;;;
;;;;;;;;;;;;;;;;;;;;;;;;;;;
;;;;;;;;;;;;;;;;;;;;;;;;;;;
;;;;;;;;;;;;;;;;;;;;;;;;;;;
;;;;;;;;;;;;;;;;;;;;;;;;;;;
;;;;;;;;;;;;;;;;;;;;;;;;;;;
;;;;;;;;;;;;;;;;;;;;;;;;;;;
;;;;;;;;;;;;;;;;;;;;;;;;;;;
;;;;;;;;;;;;;;;;;;;;;;;;;;;
;;;;;;;;;;;;;;;;;;;;;;;;;;;
;;;;;;;;;;;;;;;;;;;;;;;;;;;
;;;;;;;;;;;;;;;;;;;;;;;;;;;
;;;;;;;;;;;;;;;;;;;;;;;;;;;
;;;;;;;;;;;;;;;;;;;;;;;;;;;
;;;;;;;;;;;;;;;;;;;;;;;;;;;
;;;;;;;;;;;;;;;;;;;;;;;;;;;
;;;;;;;;;;;;;;;;;;;;;;;;;;;
;;;;;;;;;;;;;;;;;;;;;;;;;;;
;;;;;;;;;;;;;;;;;;;;;;;;;;;
;;;;;;;;;;;;;;;;;;;;;;;;;;;
;;;;;;;;;;;;;;;;;;;;;;;;;;;
;;;;;;;;;;;;;;;;;;;;;;;;;;;
;;;;;;;;;;;;;;;;;;;;;;;;;;;
;;;;;;;;;;;;;;;;;;;;;;;;;;;
;;;;;;;;;;;;;;;;;;;;;;;;;;;
;;;;;;;;;;;;;;;;;;;;;;;;;;;
;;;;;;;;;;;;;;;;;;;;;;;;;;;
;;;;;;;;;;;;;;;;;;;;;;;;;;;
;;;;;;;;;;;;;;;;;;;;;;;;;;;
;;;;;;;;;;;;;;;;;;;;;;;;;;;
;;;;;;;;;;;;;;;;;;;;;;;;;;;
;;;;;;;;;;;;;;;;;;;;;;;;;;;
;;;;;;;;;;;;;;;;;;;;;;;;;;;
;;;;;;;;;;;;;;;;;;;;;;;;;;;
;;;;;;;;;;;;;;;;;;;;;;;;;;;
;;;;;;;;;;;;;;;;;;;;;;;;;;;
;;;;;;;;;;;;;;;;;;;;;;;;;;;
;;;;;;;;;;;;;;;;;;;;;;;;;;;
;;;;;;;;;;;;;;;;;;;;;;;;;;;
;;;;;;;;;;;;;;;;;;;;;;;;;;;
;;;;;;;;;;;;;;;;;;;;;;;;;;;
;;;;;;;;;;;;;;;;;;;;;;;;;;;
;;;;;;;;;;;;;;;;;;;;;;;;;;;
;;;;;;;;;;;;;;;;;;;;;;;;;;;
;;;;;;;;;;;;;;;;;;;;;;;;;;;
;;;;;;;;;;;;;;;;;;;;;;;;;;;
;;;;;;;;;;;;;;;;;;;;;;;;;;;
;;;;;;;;;;;;;;;;;;;;;;;;;;;
;;;;;;;;;;;;;;;;;;;;;;;;;;;
;;;;;;;;;;;;;;;;;;;;;;;;;;;
;;;;;;;;;;;;;;;;;;;;;;;;;;;
;;;;;;;;;;;;;;;;;;;;;;;;;;;
;;;;;;;;;;;;;;;;;;;;;;;;;;;
;;;;;;;;;;;;;;;;;;;;;;;;;;;
;;;;;;;;;;;;;;;;;;;;;;;;;;;
;;;;;;;;;;;;;;;;;;;;;;;;;;;
;;;;;;;;;;;;;;;;;;;;;;;;;;;
;;;;;;;;;;;;;;;;;;;;;;;;;;;
;;;;;;;;;;;;;;;;;;;;;;;;;;;
;;;;;;;;;;;;;;;;;;;;;;;;;;;
;;;;;;;;;;;;;;;;;;;;;;;;;;;
;;;;;;;;;;;;;;;;;;;;;;;;;;;
;;;;;;;;;;;;;;;;;;;;;;;;;;;
;;;;;;;;;;;;;;;;;;;;;;;;;;;
;;;;;;;;;;;;;;;;;;;;;;;;;;;
;;;;;;;;;;;;;;;;;;;;;;;;;;;
;;;;;;;;;;;;;;;;;;;;;;;;;;;
;;;;;;;;;;;;;;;;;;;;;;;;;;;
;;;;;;;;;;;;;;;;;;;;;;;;;;;
;;;;;;;;;;;;;;;;;;;;;;;;;;;
;;;;;;;;;;;;;;;;;;;;;;;;;;;
;;;;;;;;;;;;;;;;;;;;;;;;;;;
;;;;;;;;;;;;;;;;;;;;;;;;;;;
;;;;;;;;;;;;;;;;;;;;;;;;;;;
;;;;;;;;;;;;;;;;;;;;;;;;;;;
;;;;;;;;;;;;;;;;;;;;;;;;;;;
;;;;;;;;;;;;;;;;;;;;;;;;;;;
;;;;;;;;;;;;;;;;;;;;;;;;;;;
;;;;;;;;;;;;;;;;;;;;;;;;;;;
;;;;;;;;;;;;;;;;;;;;;;;;;;;
;;;;;;;;;;;;;;;;;;;;;;;;;;;
;;;;;;;;;;;;;;;;;;;;;;;;;;;
;;;;;;;;;;;;;;;;;;;;;;;;;;;
;;;;;;;;;;;;;;;;;;;;;;;;;;;
;;;;;;;;;;;;;;;;;;;;;;;;;;;
;;;;;;;;;;;;;;;;;;;;;;;;;;;
;;;;;;;;;;;;;;;;;;;;;;;;;;;
;;;;;;;;;;;;;;;;;;;;;;;;;;;
;;;;;;;;;;;;;;;;;;;;;;;;;;;
;;;;;;;;;;;;;;;;;;;;;;;;;;;
;;;;;;;;;;;;;;;;;;;;;;;;;;;
;;;;;;;;;;;;;;;;;;;;;;;;;;;
;;;;;;;;;;;;;;;;;;;;;;;;;;;
;;;;;;;;;;;;;;;;;;;;;;;;;;;
;;;;;;;;;;;;;;;;;;;;;;;;;;;
;;;;;;;;;;;;;;;;;;;;;;;;;;;
;;;;;;;;;;;;;;;;;;;;;;;;;;;
;;;;;;;;;;;;;;;;;;;;;;;;;;;
;;;;;;;;;;;;;;;;;;;;;;;;;;;
;;;;;;;;;;;;;;;;;;;;;;;;;;;
;;;;;;;;;;;;;;;;;;;;;;;;;;;
;;;;;;;;;;;;;;;;;;;;;;;;;;;
;;;;;;;;;;;;;;;;;;;;;;;;;;;
;;;;;;;;;;;;;;;;;;;;;;;;;;;
;;;;;;;;;;;;;;;;;;;;;;;;;;;
;;;;;;;;;;;;;;;;;;;;;;;;;;;
;;;;;;;;;;;;;;;;;;;;;;;;;;;
;;;;;;;;;;;;;;;;;;;;;;;;;;;
;;;;;;;;;;;;;;;;;;;;;;;;;;;
;;;;;;;;;;;;;;;;;;;;;;;;;;;
;;;;;;;;;;;;;;;;;;;;;;;;;;;
;;;;;;;;;;;;;;;;;;;;;;;;;;;
;;;;;;;;;;;;;;;;;;;;;;;;;;;
;;;;;;;;;;;;;;;;;;;;;;;;;;;
;;;;;;;;;;;;;;;;;;;;;;;;;;;
;;;;;;;;;;;;;;;;;;;;;;;;;;;
;;;;;;;;;;;;;;;;;;;;;;;;;;;
;;;;;;;;;;;;;;;;;;;;;;;;;;;
;;;;;;;;;;;;;;;;;;;;;;;;;;;
;;;;;;;;;;;;;;;;;;;;;;;;;;;
;;;;;;;;;;;;;;;;;;;;;;;;;;;
;;;;;;;;;;;;;;;;;;;;;;;;;;;
;;;;;;;;;;;;;;;;;;;;;;;;;;;
;;;;;;;;;;;;;;;;;;;;;;;;;;;
;;;;;;;;;;;;;;;;;;;;;;;;;;;
;;;;;;;;;;;;;;;;;;;;;;;;;;;
;;;;;;;;;;;;;;;;;;;;;;;;;;;
;;;;;;;;;;;;;;;;;;;;;;;;;;;
;;;;;;;;;;;;;;;;;;;;;;;;;;;
;;;;;;;;;;;;;;;;;;;;;;;;;;;
;;;;;;;;;;;;;;;;;;;;;;;;;;;
;;;;;;;;;;;;;;;;;;;;;;;;;;;
;;;;;;;;;;;;;;;;;;;;;;;;;;;
;;;;;;;;;;;;;;;;;;;;;;;;;;;
;;;;;;;;;;;;;;;;;;;;;;;;;;;
;;;;;;;;;;;;;;;;;;;;;;;;;;;
;;;;;;;;;;;;;;;;;;;;;;;;;;;
;;;;;;;;;;;;;;;;;;;;;;;;;;;
;;;;;;;;;;;;;;;;;;;;;;;;;;;
;;;;;;;;;;;;;;;;;;;;;;;;;;;
;;;;;;;;;;;;;;;;;;;;;;;;;;;
;;;;;;;;;;;;;;;;;;;;;;;;;;;
;;;;;;;;;;;;;;;;;;;;;;;;;;;
;;;;;;;;;;;;;;;;;;;;;;;;;;;
;;;;;;;;;;;;;;;;;;;;;;;;;;;
;;;;;;;;;;;;;;;;;;;;;;;;;;;
;;;;;;;;;;;;;;;;;;;;;;;;;;;
;;;;;;;;;;;;;;;;;;;;;;;;;;;
;;;;;;;;;;;;;;;;;;;;;;;;;;;
;;;;;;;;;;;;;;;;;;;;;;;;;;;
;;;;;;;;;;;;;;;;;;;;;;;;;;;
;;;;;;;;;;;;;;;;;;;;;;;;;;;
;;;;;;;;;;;;;;;;;;;;;;;;;;;
;;;;;;;;;;;;;;;;;;;;;;;;;;;
